…
The `gzma` dataset represents the *Data of Social Space Quality in Guangzhou Metropolitan Areas of China (2010)*. It contains multiple indicators describing urban social space conditions. In particular, four key variables correspond to subsystem scores, including population stability (`PS_Score`), educational level (`EL_Score`), occupational hierarchy (`OH_Score`), and income level (`IL_Score `).

Load the `gzma` dataset from the `sdsfun` package:


``` r
gzma = sf::read_sf(system.file('extdata/gzma.gpkg',package = 'sdsfun'))
gzma
## Simple feature collection with 118 features and 4 fields
## Geometry type: POLYGON
## Dimension:     XY
## Bounding box:  xmin: 113.1485 ymin: 22.94659 xmax: 113.5628 ymax: 23.33026
## Geodetic CRS:  WGS 84
## # A tibble: 118 × 5
##    PS_Score EL_Score OH_Score IL_Score                                                         geom
##       <dbl>    <dbl>    <dbl>    <dbl>                                                <POLYGON [°]>
##  1     7.21     4.64     4.75     2.64 ((113.2797 23.13359, 113.2715 23.13413, 113.2682 23.13371, …
##  2     3.55     3.81     3.91     4.06 ((113.2519 23.15353, 113.2497 23.15545, 113.254 23.15774, 1…
##  3     7.94     4.69     4.86     3.31 ((113.2815 23.12902, 113.2749 23.12969, 113.2732 23.12523, …
##  4     8.22     4.93     4.92     3.74 ((113.3098 23.12458, 113.3046 23.12448, 113.3026 23.12642, …
##  5     7.84     4.74     4.98     4.69 ((113.3099 23.11566, 113.3087 23.11542, 113.2957 23.11531, …
##  6     8.12     5.13     4.98     3.92 ((113.2864 23.13354, 113.2863 23.135, 113.2884 23.1375, 113…
##  7     8.30     5.18     4.87     3.77 ((113.2797 23.13359, 113.2799 23.13956, 113.274 23.14182, 1…
##  8     5.14     4.43     4.41     4.13 ((113.3013 23.16168, 113.2985 23.16208, 113.296 23.16051, 1…
##  9     5.92     4.18     4.37     2.29 ((113.2631 23.12832, 113.2586 23.12813, 113.2592 23.12228, …
## 10     6.99     4.32     4.24     2.72 ((113.2747 23.12164, 113.2727 23.12362, 113.2732 23.12523, …
## # ℹ 108 more rows
```
…
